andorra,42.5,1.5
united arab emirates,24,54
afghanistan,33,65
antigua and barbuda,17.05,-61.8
anguilla,18.25,-63.17
albania,41,20
armenia,40,45
netherlands antilles,12.25,-68.75
angola,-12.5,18.5
asia/pacific region,35,105
antarctica,-90,0
argentina,-34,-64
american samoa,-14.33,-170
austria,47.33,13.33
australia,-27,133
aruba,12.5,-69.97
azerbaijan,40.5,47.5
bosnia and herzegovina,44,18
barbados,13.17,-59.53
bangladesh,24,90
belgium,50.83,4
burkina faso,13,-2
bulgaria,43,25
bahrain,26,50.55
burundi,-3.5,30
benin,9.5,2.25
bermuda,32.33,-64.75
brunei darussalam,4.5,114.67
bolivia,-17,-65
brazil,-10,-55
bahamas,24.25,-76
bhutan,27.5,90.5
bouvet island,-54.43,3.4
botswana,-22,24
belarus,53,28
belize,17.25,-88.75
canada,60,-95
cocos (keeling) islands,-12.5,96.83
"congo, the democratic republic of the",0,25
central african republic,7,21
congo,-1,15
switzerland,47,8
cote d'ivoire,8,-5
cook islands,-21.23,-159.77
chile,-30,-71
cameroon,6,12
china,35,105
colombia,4,-72
costa rica,10,-84
cuba,21.5,-80
cape verde,16,-24
christmas island,-10.5,105.67
cyprus,35,33
czech republic,49.75,15.5
germany,51,9
djibouti,11.5,43
denmark,56,10
dominica,15.42,-61.33
dominican republic,19,-70.67
algeria,28,3
ecuador,-2,-77.5
estonia,59,26
egypt,27,30
western sahara,24.5,-13
eritrea,15,39
spain,40,-4
ethiopia,8,38
europe,47,8
finland,64,26
fiji,-18,175
falkland islands (malvinas),-51.75,-59
"micronesia, federated states of",6.92,158.25
faroe islands,62,-7
france,46,2
gabon,-1,11.75
united kingdom,54,-2
grenada,12.12,-61.67
georgia,42,43.5
french guiana,4,-53
ghana,8,-2
gibraltar,36.18,-5.37
greenland,72,-40
gambia,13.47,-16.57
guinea,11,-10
guadeloupe,16.25,-61.58
equatorial guinea,2,10
greece,39,22
south georgia and the south sandwich islands,-54.5,-37
guatemala,15.5,-90.25
guam,13.47,144.78
guinea-bissau,12,-15
guyana,5,-59
hong kong,22.25,114.17
heard island and mcdonald islands,-53.1,72.52
honduras,15,-86.5
croatia,45.17,15.5
haiti,19,-72.42
hungary,47,20
indonesia,-5,120
ireland,53,-8
israel,31.5,34.75
india,20,77
british indian ocean territory,-6,71.5
iraq,33,44
"iran, islamic republic of",32,53
iceland,65,-18
italy,42.83,12.83
jamaica,18.25,-77.5
jordan,31,36
japan,36,138
kenya,1,38
kyrgyzstan,41,75
cambodia,13,105
kiribati,1.42,173
comoros,-12.17,44.25
saint kitts and nevis,17.33,-62.75
"korea, democratic people's republic of",40,127
"korea, republic of",37,127.5
kuwait,29.34,47.66
cayman islands,19.5,-80.5
kazakhstan,48,68
lao people's democratic republic,18,105
lebanon,33.83,35.83
saint lucia,13.88,-61.13
liechtenstein,47.17,9.53
sri lanka,7,81
liberia,6.5,-9.5
lesotho,-29.5,28.5
lithuania,56,24
luxembourg,49.75,6.17
latvia,57,25
libyan arab jamahiriya,25,17
morocco,32,-5
monaco,43.73,7.4
"moldova, republic of",47,29
montenegro,42,19
madagascar,-20,47
marshall islands,9,168
macedonia,41.83,22
mali,17,-4
myanmar,22,98
mongolia,46,105
macao,22.17,113.55
northern mariana islands,15.2,145.75
martinique,14.67,-61
mauritania,20,-12
montserrat,16.75,-62.2
malta,35.83,14.58
mauritius,-20.28,57.55
maldives,3.25,73
malawi,-13.5,34
mexico,23,-102
malaysia,2.5,112.5
mozambique,-18.25,35
namibia,-22,17
new caledonia,-21.5,165.5
niger,16,8
norfolk island,-29.03,167.95
nigeria,10,8
nicaragua,13,-85
netherlands,52.5,5.75
norway,62,10
nepal,28,84
nauru,-0.53,166.92
niue,-19.03,-169.87
new zealand,-41,174
oman,21,57
panama,9,-80
peru,-10,-76
french polynesia,-15,-140
papua new guinea,-6,147
philippines,13,122
pakistan,30,70
poland,52,20
saint pierre and miquelon,46.83,-56.33
puerto rico,18.25,-66.5
palestinian territory,32,35.25
portugal,39.5,-8
palau,7.5,134.5
paraguay,-23,-58
qatar,25.5,51.25
reunion,-21.1,55.6
romania,46,25
serbia,44,21
russian federation,60,100
rwanda,-2,30
saudi arabia,25,45
solomon islands,-8,159
seychelles,-4.58,55.67
sudan,15,30
sweden,62,15
singapore,1.37,103.8
saint helena,-15.93,-5.7
slovenia,46,15
svalbard and jan mayen,78,20
slovakia,48.67,19.5
sierra leone,8.5,-11.5
san marino,43.77,12.42
senegal,14,-14
somalia,10,49
suriname,4,-56
sao tome and principe,1,7
el salvador,13.83,-88.92
syrian arab republic,35,38
swaziland,-26.5,31.5
turks and caicos islands,21.75,-71.58
chad,15,19
french southern territories,-43,67
togo,8,1.17
thailand,15,100
tajikistan,39,71
tokelau,-9,-172
turkmenistan,40,60
tunisia,34,9
tonga,-20,-175
turkey,39,35
trinidad and tobago,11,-61
tuvalu,-8,178
taiwan,23.5,121
"tanzania, united republic of",-6,35
ukraine,49,32
uganda,1,32
united states minor outlying islands,19.28,166.6
united states,38,-97
uruguay,-33,-56
uzbekistan,41,64
holy see (vatican city state),41.9,12.45
saint vincent and the grenadines,13.25,-61.2
venezuela,8,-66
"virgin islands, british",18.5,-64.5
"virgin islands, u.s.",18.33,-64.83
vietnam,16,106
vanuatu,-16,167
wallis and futuna,-13.3,-176.2
samoa,-13.58,-172.33
yemen,15,48
mayotte,-12.83,45.17
south africa,-29,24
zambia,-15,30
zimbabwe,-20,30
